<?xml version="1.0" encoding="UTF-8" standalone="no"?><svg xmlns="http://www.w3.org/2000/svg" xmlns:xlink="http://www.w3.org/1999/xlink" contentScriptType="application/ecmascript" contentStyleType="text/css" height="220px" preserveAspectRatio="none" style="width:300px;height:220px;" version="1.1" viewBox="0 0 300 220" width="300px" zoomAndPan="magnify"><defs><filter height="300%" id="fn3yvorrca0j1" width="300%" x="-1" y="-1"><feGaussianBlur result="blurOut" stdDeviation="2.0"/><feColorMatrix in="blurOut" result="blurOut2" type="matrix" values="0 0 0 0 0 0 0 0 0 0 0 0 0 0 0 0 0 0 .4 0"/><feOffset dx="4.0" dy="4.0" in="blurOut2" result="blurOut3"/><feBlend in="SourceGraphic" in2="blurOut3" mode="normal"/></filter></defs><g><line style="stroke:#A80036;stroke-width:1.0;stroke-dasharray:5.0,5.0;" x1="30" x2="30" y1="40.2969" y2="176.8281"/><line style="stroke:#A80036;stroke-width:1.0;stroke-dasharray:5.0,5.0;" x1="267" x2="267" y1="40.2969" y2="176.8281"/><rect fill="#FEFECE" filter="url(#fn3yvorrca0j1)" height="30.2969" style="stroke:#A80036;stroke-width:1.5;" width="46" x="5" y="5"/><text fill="#000000" font-family="sans-serif" font-size="14" lengthAdjust="spacingAndGlyphs" textLength="32" x="12" y="24.9951">Alice</text><rect fill="#FEFECE" filter="url(#fn3yvorrca0j1)" height="30.2969" style="stroke:#A80036;stroke-width:1.5;" width="46" x="5" y="175.8281"/><text fill="#000000" font-family="sans-serif" font-size="14" lengthAdjust="spacingAndGlyphs" textLength="32" x="12" y="195.8232">Alice</text><rect fill="#FEFECE" filter="url(#fn3yvorrca0j1)" height="30.2969" style="stroke:#A80036;stroke-width:1.5;" width="42" x="244" y="5"/><text fill="#000000" font-family="sans-serif" font-size="14" lengthAdjust="spacingAndGlyphs" textLength="28" x="251" y="24.9951">Bob</text><rect fill="#FEFECE" filter="url(#fn3yvorrca0j1)" height="30.2969" style="stroke:#A80036;stroke-width:1.5;" width="42" x="244" y="175.8281"/><text fill="#000000" font-family="sans-serif" font-size="14" lengthAdjust="spacingAndGlyphs" textLength="28" x="251" y="195.8232">Bob</text><polygon fill="#A80036" points="255,67.4297,265,71.4297,255,75.4297,259,71.4297" style="stroke:#A80036;stroke-width:1.0;"/><line style="stroke:#A80036;stroke-width:1.0;" x1="30" x2="261" y1="71.4297" y2="71.4297"/><text fill="#000000" font-family="sans-serif" font-size="13" lengthAdjust="spacingAndGlyphs" textLength="149" x="37" y="66.3638">Authentication Request</text><polygon fill="#A80036" points="41,96.5625,31,100.5625,41,104.5625,37,100.5625" style="stroke:#A80036;stroke-width:1.0;"/><line style="stroke:#A80036;stroke-width:1.0;stroke-dasharray:2.0,2.0;" x1="35" x2="266" y1="100.5625" y2="100.5625"/><text fill="#000000" font-family="sans-serif" font-size="13" lengthAdjust="spacingAndGlyphs" textLength="159" x="47" y="95.4966">Authentication Response</text><polygon fill="#A80036" points="255,125.6953,265,129.6953,255,133.6953,259,129.6953" style="stroke:#A80036;stroke-width:1.0;"/><line style="stroke:#A80036;stroke-width:1.0;" x1="30" x2="261" y1="129.6953" y2="129.6953"/><text fill="#000000" font-family="sans-serif" font-size="13" lengthAdjust="spacingAndGlyphs" textLength="203" x="37" y="124.6294">Another authentication Request</text><polygon fill="#A80036" points="41,154.8281,31,158.8281,41,162.8281,37,158.8281" style="stroke:#A80036;stroke-width:1.0;"/><line style="stroke:#A80036;stroke-width:1.0;stroke-dasharray:2.0,2.0;" x1="35" x2="266" y1="158.8281" y2="158.8281"/><text fill="#000000" font-family="sans-serif" font-size="13" lengthAdjust="spacingAndGlyphs" textLength="213" x="47" y="153.7622">Another authentication Response</text><!--MD5=[ff322a1347e46487ef6d0dc8b7b24508]
@startuml
Alice -> Bob: Authentication Request
Bob - -> Alice: Authentication Response

Alice -> Bob: Another authentication Request
Alice <- - Bob: Another authentication Response
@enduml

PlantUML version 1.2020.21(Mon Nov 30 10:40:11 CST 2020)
(GPL source distribution)
Java Runtime: OpenJDK Runtime Environment
JVM: OpenJDK 64-Bit Server VM
Default Encoding: UTF-8
Language: en
Country: US
--></g></svg>